state={
	id=1016
	name="STATE_1016"
	
	history={
		owner = TUR
		victory_points = {
			10876 2
		}
		victory_points = {
			8001 2
		}
		buildings = {
			infrastructure = 3

		}
		add_core_of = TUR

	}
	
	provinces={
		8001 10744 10876 12879 13313 13315 13318 
	}
	manpower=1389500
	buildings_max_level_factor=1.000
	state_category=rural
}
