
state={
	id=1032
	name="STATE_1032"

	history={
		owner = TUR
		victory_points = {
			4115 2 
		}
		victory_points = {
			10089 2 
		}
		buildings = {
			infrastructure = 2

		}
		add_core_of = JOR
		1950.1.1 = {
			owner = JOR

		}

	}

	provinces={
		4017 4115 4562 4591 4603 10089 11976 13351 
	}
	manpower=121400
	buildings_max_level_factor=1.000
	state_category=rural
}
