
state={
	id=197
	name="STATE_197"

	history={
		owner = UKR
		buildings = {
			infrastructure = 5
			dockyard = 1

		}
		add_core_of = UKR
		add_core_of = UKR
		1939.1.1 = {
			buildings = {
				dockyard = 2

			}

		}
		1942.11.21 = {
			owner = RUK
			controller = RUK

		}
		2000.1.1 = {
			owner = UKR

		}

	}

	provinces={
		409 574 3403 3755 6597 9573 11546 11683 
	}
	manpower=896311
	buildings_max_level_factor=1.000
	state_category=rural
}
