
state={
	id=200
	name="STATE_200"

	history={
		owner = UKR
		victory_points = {
			11405 1 
		}
		buildings = {
			infrastructure = 5
			air_base = 3

		}
		add_core_of = UKR
		add_core_of = UKR
		1944.6.20 = {
			owner = UKR
			controller = UKR

		}
		1939.1.1 = {
			buildings = {
				industrial_complex = 1

			}

		}
		1942.11.21 = {
			owner = RUK
			controller = RUK

		}
		2000.1.1 = {
			owner = UKR

		}

	}

	provinces={
		429 588 3399 3767 6596 9571 9729 11405 11700 
	}
	manpower=1294082
	buildings_max_level_factor=1.000
	state_category=town
}
