
state={
	id=554
	name="STATE_554"

	history={
		owner = TUR
		victory_points = {
			4111 10
		}
		buildings = {
			infrastructure = 3
			air_base = 1

		}
		add_core_of = SYR
		1950.1.1 = {
			owner = SYR

		}
		1960.1.1 = {
			owner = EGY

		}
		1972.1.1 = {
			owner = SYR

		}

	}

	provinces={
		4111 7184 13223 13224 
	}
	manpower=437297
	buildings_max_level_factor=1.000
	state_category=rural
}
