
state={
	id=84
	name="STATE_84"
	manpower = 1622300
	resources={
		steel=3 # was: 4
	}
	
	state_category = town

	history={
		owner = HUN
		victory_points = {
			690 3
		}
		victory_points = {
			6679 2
		}
		buildings = {
			infrastructure = 4
			arms_factory = 1
			industrial_complex = 1
		}
		add_core_of = HUN
	}

	provinces={
		676 690 693 3665 3676 3694 6679 6709 9619 11622 11639 
	}
}
