
state={
	id=849
	name="STATE_849"

	history={
		owner = TUR
		victory_points = {
			11919 2
		}
		buildings = {
			infrastructure = 4

		}
		add_core_of = LEB
		1950.1.1 = {
			owner = LEB

		}

	}

	provinces={
		11919 
	}
	manpower=441600
	buildings_max_level_factor=1.000
	state_category=town
}
